%YAML 1.1
%TAG !u! tag:unity3d.com,2011:
--- !u!114 &11400000
MonoBehaviour:
  m_ObjectHideFlags: 0
  m_CorrespondingSourceObject: {fileID: 0}
  m_PrefabInstance: {fileID: 0}
  m_PrefabAsset: {fileID: 0}
  m_GameObject: {fileID: 0}
  m_Enabled: 1
  m_EditorHideFlags: 0
  m_Script: {fileID: 11500000, guid: 9d1514134bc4fbd41bb739b1b9a49231, type: 3}
  m_Name: TileGround
  m_EditorClassIdentifier: 
  m_DefaultSprite: {fileID: -950347571703736490, guid: 8956ef01e7585c24d95d1685ffd4cb03,
    type: 3}
  m_DefaultGameObject: {fileID: 0}
  m_DefaultColliderType: 1
  m_TilingRules:
  - m_Id: 0
    m_Sprites:
    - {fileID: 3607420368171494632, guid: 8956ef01e7585c24d95d1685ffd4cb03, type: 3}
    m_GameObject: {fileID: 0}
    m_MinAnimationSpeed: 1
    m_MaxAnimationSpeed: 1
    m_PerlinScale: 0.5
    m_Output: 0
    m_ColliderType: 1
    m_RandomTransform: 0
    m_Neighbors: 0100000001000000020000000200000001000000
    m_NeighborPositions:
    - {x: 1, y: 0, z: 0}
    - {x: 0, y: -1, z: 0}
    - {x: 0, y: 1, z: 0}
    - {x: -1, y: 0, z: 0}
    - {x: 1, y: -1, z: 0}
    m_RuleTransform: 0
  - m_Id: 1
    m_Sprites:
    - {fileID: 272689681677197696, guid: 8956ef01e7585c24d95d1685ffd4cb03, type: 3}
    m_GameObject: {fileID: 0}
    m_MinAnimationSpeed: 1
    m_MaxAnimationSpeed: 1
    m_PerlinScale: 0.5
    m_Output: 0
    m_ColliderType: 1
    m_RandomTransform: 0
    m_Neighbors: 010000000100000002000000010000000100000001000000
    m_NeighborPositions:
    - {x: -1, y: 0, z: 0}
    - {x: 1, y: 0, z: 0}
    - {x: 0, y: 1, z: 0}
    - {x: 0, y: -1, z: 0}
    - {x: 1, y: -1, z: 0}
    - {x: -1, y: -1, z: 0}
    m_RuleTransform: 0
  - m_Id: 2
    m_Sprites:
    - {fileID: 4787730326580911942, guid: 8956ef01e7585c24d95d1685ffd4cb03, type: 3}
    m_GameObject: {fileID: 0}
    m_MinAnimationSpeed: 1
    m_MaxAnimationSpeed: 1
    m_PerlinScale: 0.5
    m_Output: 0
    m_ColliderType: 1
    m_RandomTransform: 0
    m_Neighbors: 0100000001000000020000000200000001000000
    m_NeighborPositions:
    - {x: 0, y: -1, z: 0}
    - {x: -1, y: 0, z: 0}
    - {x: 0, y: 1, z: 0}
    - {x: 1, y: 0, z: 0}
    - {x: -1, y: -1, z: 0}
    m_RuleTransform: 0
  - m_Id: 13
    m_Sprites:
    - {fileID: -5588875910627204662, guid: 8956ef01e7585c24d95d1685ffd4cb03, type: 3}
    m_GameObject: {fileID: 0}
    m_MinAnimationSpeed: 1
    m_MaxAnimationSpeed: 1
    m_PerlinScale: 0.5
    m_Output: 0
    m_ColliderType: 1
    m_RandomTransform: 0
    m_Neighbors: 02000000020000000200000001000000
    m_NeighborPositions:
    - {x: 0, y: 1, z: 0}
    - {x: -1, y: 0, z: 0}
    - {x: 1, y: 0, z: 0}
    - {x: 0, y: -1, z: 0}
    m_RuleTransform: 0
  - m_Id: 14
    m_Sprites:
    - {fileID: -8177976223375927343, guid: 8956ef01e7585c24d95d1685ffd4cb03, type: 3}
    m_GameObject: {fileID: 0}
    m_MinAnimationSpeed: 1
    m_MaxAnimationSpeed: 1
    m_PerlinScale: 0.5
    m_Output: 0
    m_ColliderType: 1
    m_RandomTransform: 0
    m_Neighbors: 0100000001000000010000000100000001000000020000000100000001000000
    m_NeighborPositions:
    - {x: -1, y: 1, z: 0}
    - {x: 0, y: 1, z: 0}
    - {x: 1, y: 1, z: 0}
    - {x: 1, y: 0, z: 0}
    - {x: -1, y: -1, z: 0}
    - {x: 1, y: -1, z: 0}
    - {x: -1, y: 0, z: 0}
    - {x: 0, y: -1, z: 0}
    m_RuleTransform: 0
  - m_Id: 15
    m_Sprites:
    - {fileID: -6847863175881498481, guid: 8956ef01e7585c24d95d1685ffd4cb03, type: 3}
    m_GameObject: {fileID: 0}
    m_MinAnimationSpeed: 1
    m_MaxAnimationSpeed: 1
    m_PerlinScale: 0.5
    m_Output: 0
    m_ColliderType: 1
    m_RandomTransform: 0
    m_Neighbors: 0100000001000000010000000100000001000000010000000200000001000000
    m_NeighborPositions:
    - {x: -1, y: 1, z: 0}
    - {x: 0, y: 1, z: 0}
    - {x: 1, y: 1, z: 0}
    - {x: -1, y: 0, z: 0}
    - {x: 1, y: 0, z: 0}
    - {x: 0, y: -1, z: 0}
    - {x: -1, y: -1, z: 0}
    - {x: 1, y: -1, z: 0}
    m_RuleTransform: 0
  - m_Id: 18
    m_Sprites:
    - {fileID: -2392471762848456465, guid: 8956ef01e7585c24d95d1685ffd4cb03, type: 3}
    m_GameObject: {fileID: 0}
    m_MinAnimationSpeed: 1
    m_MaxAnimationSpeed: 1
    m_PerlinScale: 0.5
    m_Output: 0
    m_ColliderType: 1
    m_RandomTransform: 0
    m_Neighbors: 0200000001000000020000000100000001000000010000000100000002000000
    m_NeighborPositions:
    - {x: -1, y: 1, z: 0}
    - {x: 0, y: 1, z: 0}
    - {x: 1, y: 1, z: 0}
    - {x: -1, y: 0, z: 0}
    - {x: 1, y: 0, z: 0}
    - {x: -1, y: -1, z: 0}
    - {x: 0, y: -1, z: 0}
    - {x: 1, y: -1, z: 0}
    m_RuleTransform: 0
  - m_Id: 4
    m_Sprites:
    - {fileID: -7281149326324090909, guid: 8956ef01e7585c24d95d1685ffd4cb03, type: 3}
    m_GameObject: {fileID: 0}
    m_MinAnimationSpeed: 1
    m_MaxAnimationSpeed: 1
    m_PerlinScale: 0.5
    m_Output: 0
    m_ColliderType: 1
    m_RandomTransform: 0
    m_Neighbors: 010000000100000002000000010000000100000001000000
    m_NeighborPositions:
    - {x: 0, y: 1, z: 0}
    - {x: 1, y: 1, z: 0}
    - {x: -1, y: 0, z: 0}
    - {x: 1, y: 0, z: 0}
    - {x: 0, y: -1, z: 0}
    - {x: 1, y: -1, z: 0}
    m_RuleTransform: 0
  - m_Id: 3
    m_Sprites:
    - {fileID: 7402920810088085685, guid: 8956ef01e7585c24d95d1685ffd4cb03, type: 3}
    m_GameObject: {fileID: 0}
    m_MinAnimationSpeed: 1
    m_MaxAnimationSpeed: 1
    m_PerlinScale: 0.5
    m_Output: 0
    m_ColliderType: 1
    m_RandomTransform: 0
    m_Neighbors: 0100000001000000010000000100000001000000010000000100000001000000
    m_NeighborPositions:
    - {x: 1, y: 0, z: 0}
    - {x: 0, y: -1, z: 0}
    - {x: -1, y: 0, z: 0}
    - {x: 0, y: 1, z: 0}
    - {x: -1, y: -1, z: 0}
    - {x: -1, y: 1, z: 0}
    - {x: 1, y: 1, z: 0}
    - {x: 1, y: -1, z: 0}
    m_RuleTransform: 0
  - m_Id: 5
    m_Sprites:
    - {fileID: -467991382389401026, guid: 8956ef01e7585c24d95d1685ffd4cb03, type: 3}
    m_GameObject: {fileID: 0}
    m_MinAnimationSpeed: 1
    m_MaxAnimationSpeed: 1
    m_PerlinScale: 0.5
    m_Output: 0
    m_ColliderType: 1
    m_RandomTransform: 0
    m_Neighbors: 010000000100000001000000010000000100000002000000
    m_NeighborPositions:
    - {x: -1, y: 1, z: 0}
    - {x: 0, y: 1, z: 0}
    - {x: -1, y: 0, z: 0}
    - {x: 0, y: -1, z: 0}
    - {x: -1, y: -1, z: 0}
    - {x: 1, y: 0, z: 0}
    m_RuleTransform: 0
  - m_Id: 9
    m_Sprites:
    - {fileID: -6921023308707158657, guid: 8956ef01e7585c24d95d1685ffd4cb03, type: 3}
    m_GameObject: {fileID: 0}
    m_MinAnimationSpeed: 1
    m_MaxAnimationSpeed: 1
    m_PerlinScale: 0.5
    m_Output: 0
    m_ColliderType: 1
    m_RandomTransform: 0
    m_Neighbors: 01000000020000000100000002000000
    m_NeighborPositions:
    - {x: 0, y: 1, z: 0}
    - {x: 1, y: 0, z: 0}
    - {x: 0, y: -1, z: 0}
    - {x: -1, y: 0, z: 0}
    m_RuleTransform: 0
  - m_Id: 10
    m_Sprites:
    - {fileID: 6278689646517498857, guid: 8956ef01e7585c24d95d1685ffd4cb03, type: 3}
    m_GameObject: {fileID: 0}
    m_MinAnimationSpeed: 1
    m_MaxAnimationSpeed: 1
    m_PerlinScale: 0.5
    m_Output: 0
    m_ColliderType: 1
    m_RandomTransform: 0
    m_Neighbors: 0100000001000000020000000100000001000000010000000100000001000000
    m_NeighborPositions:
    - {x: 0, y: 1, z: 0}
    - {x: 0, y: -1, z: 0}
    - {x: 1, y: 1, z: 0}
    - {x: 1, y: 0, z: 0}
    - {x: -1, y: 0, z: 0}
    - {x: 1, y: -1, z: 0}
    - {x: -1, y: -1, z: 0}
    - {x: -1, y: 1, z: 0}
    m_RuleTransform: 0
  - m_Id: 11
    m_Sprites:
    - {fileID: 2367827288122458794, guid: 8956ef01e7585c24d95d1685ffd4cb03, type: 3}
    m_GameObject: {fileID: 0}
    m_MinAnimationSpeed: 1
    m_MaxAnimationSpeed: 1
    m_PerlinScale: 0.5
    m_Output: 0
    m_ColliderType: 1
    m_RandomTransform: 0
    m_Neighbors: 0100000001000000010000000100000002000000010000000100000001000000
    m_NeighborPositions:
    - {x: 0, y: 1, z: 0}
    - {x: -1, y: 0, z: 0}
    - {x: 1, y: 0, z: 0}
    - {x: 0, y: -1, z: 0}
    - {x: -1, y: 1, z: 0}
    - {x: 1, y: -1, z: 0}
    - {x: 1, y: 1, z: 0}
    - {x: -1, y: -1, z: 0}
    m_RuleTransform: 0
  - m_Id: 12
    m_Sprites:
    - {fileID: 7669323094747574260, guid: 8956ef01e7585c24d95d1685ffd4cb03, type: 3}
    m_GameObject: {fileID: 0}
    m_MinAnimationSpeed: 1
    m_MaxAnimationSpeed: 1
    m_PerlinScale: 0.5
    m_Output: 0
    m_ColliderType: 1
    m_RandomTransform: 0
    m_Neighbors: 0200000001000000010000000100000001000000010000000100000002000000
    m_NeighborPositions:
    - {x: -1, y: 1, z: 0}
    - {x: 0, y: 1, z: 0}
    - {x: 1, y: 1, z: 0}
    - {x: -1, y: 0, z: 0}
    - {x: 1, y: 0, z: 0}
    - {x: 0, y: -1, z: 0}
    - {x: 1, y: -1, z: 0}
    - {x: -1, y: -1, z: 0}
    m_RuleTransform: 0
  - m_Id: 6
    m_Sprites:
    - {fileID: 7101984365012181429, guid: 8956ef01e7585c24d95d1685ffd4cb03, type: 3}
    m_GameObject: {fileID: 0}
    m_MinAnimationSpeed: 1
    m_MaxAnimationSpeed: 1
    m_PerlinScale: 0.5
    m_Output: 0
    m_ColliderType: 1
    m_RandomTransform: 0
    m_Neighbors: 0200000001000000010000000100000002000000
    m_NeighborPositions:
    - {x: -1, y: 0, z: 0}
    - {x: 0, y: 1, z: 0}
    - {x: 1, y: 0, z: 0}
    - {x: 1, y: 1, z: 0}
    - {x: 0, y: -1, z: 0}
    m_RuleTransform: 0
  - m_Id: 8
    m_Sprites:
    - {fileID: -2760044083306953392, guid: 8956ef01e7585c24d95d1685ffd4cb03, type: 3}
    m_GameObject: {fileID: 0}
    m_MinAnimationSpeed: 1
    m_MaxAnimationSpeed: 1
    m_PerlinScale: 0.5
    m_Output: 0
    m_ColliderType: 1
    m_RandomTransform: 0
    m_Neighbors: 010000000100000001000000010000000100000002000000
    m_NeighborPositions:
    - {x: -1, y: 1, z: 0}
    - {x: 0, y: 1, z: 0}
    - {x: 1, y: 1, z: 0}
    - {x: -1, y: 0, z: 0}
    - {x: 1, y: 0, z: 0}
    - {x: 0, y: -1, z: 0}
    m_RuleTransform: 0
  - m_Id: 7
    m_Sprites:
    - {fileID: -1030236829694025682, guid: 8956ef01e7585c24d95d1685ffd4cb03, type: 3}
    m_GameObject: {fileID: 0}
    m_MinAnimationSpeed: 1
    m_MaxAnimationSpeed: 1
    m_PerlinScale: 0.5
    m_Output: 0
    m_ColliderType: 1
    m_RandomTransform: 0
    m_Neighbors: 0200000001000000010000000100000002000000
    m_NeighborPositions:
    - {x: 1, y: 0, z: 0}
    - {x: -1, y: 0, z: 0}
    - {x: -1, y: 1, z: 0}
    - {x: 0, y: 1, z: 0}
    - {x: 0, y: -1, z: 0}
    m_RuleTransform: 0
  - m_Id: 17
    m_Sprites:
    - {fileID: -4821747796890675874, guid: 8956ef01e7585c24d95d1685ffd4cb03, type: 3}
    m_GameObject: {fileID: 0}
    m_MinAnimationSpeed: 1
    m_MaxAnimationSpeed: 1
    m_PerlinScale: 0.5
    m_Output: 0
    m_ColliderType: 1
    m_RandomTransform: 0
    m_Neighbors: 01000000020000000200000002000000
    m_NeighborPositions:
    - {x: 0, y: 1, z: 0}
    - {x: -1, y: 0, z: 0}
    - {x: 1, y: 0, z: 0}
    - {x: 0, y: -1, z: 0}
    m_RuleTransform: 0
  - m_Id: 16
    m_Sprites:
    - {fileID: 8455063631610678847, guid: 8956ef01e7585c24d95d1685ffd4cb03, type: 3}
    m_GameObject: {fileID: 0}
    m_MinAnimationSpeed: 1
    m_MaxAnimationSpeed: 1
    m_PerlinScale: 0.5
    m_Output: 0
    m_ColliderType: 1
    m_RandomTransform: 0
    m_Neighbors: 0100000001000000020000000200000001000000010000000100000001000000
    m_NeighborPositions:
    - {x: 0, y: 1, z: 0}
    - {x: -1, y: 0, z: 0}
    - {x: -1, y: 1, z: 0}
    - {x: 1, y: 1, z: 0}
    - {x: 1, y: 0, z: 0}
    - {x: 0, y: -1, z: 0}
    - {x: 1, y: -1, z: 0}
    - {x: -1, y: -1, z: 0}
    m_RuleTransform: 0
  - m_Id: 19
    m_Sprites:
    - {fileID: 2894666616929975927, guid: 8956ef01e7585c24d95d1685ffd4cb03, type: 3}
    m_GameObject: {fileID: 0}
    m_MinAnimationSpeed: 1
    m_MaxAnimationSpeed: 1
    m_PerlinScale: 0.5
    m_Output: 0
    m_ColliderType: 1
    m_RandomTransform: 0
    m_Neighbors: 0200000001000000010000000100000002000000010000000200000001000000
    m_NeighborPositions:
    - {x: -1, y: 1, z: 0}
    - {x: 0, y: 1, z: 0}
    - {x: -1, y: 0, z: 0}
    - {x: 1, y: 0, z: 0}
    - {x: -1, y: -1, z: 0}
    - {x: 0, y: -1, z: 0}
    - {x: 1, y: -1, z: 0}
    - {x: 1, y: 1, z: 0}
    m_RuleTransform: 0
  - m_Id: 20
    m_Sprites:
    - {fileID: -6417251857741561779, guid: 8956ef01e7585c24d95d1685ffd4cb03, type: 3}
    m_GameObject: {fileID: 0}
    m_MinAnimationSpeed: 1
    m_MaxAnimationSpeed: 1
    m_PerlinScale: 0.5
    m_Output: 0
    m_ColliderType: 1
    m_RandomTransform: 0
    m_Neighbors: 0100000001000000020000000100000001000000010000000100000002000000
    m_NeighborPositions:
    - {x: -1, y: 1, z: 0}
    - {x: 0, y: 1, z: 0}
    - {x: 1, y: 1, z: 0}
    - {x: -1, y: 0, z: 0}
    - {x: 1, y: 0, z: 0}
    - {x: -1, y: -1, z: 0}
    - {x: 0, y: -1, z: 0}
    - {x: 1, y: -1, z: 0}
    m_RuleTransform: 0
  - m_Id: 21
    m_Sprites:
    - {fileID: -3038651213151169422, guid: 8956ef01e7585c24d95d1685ffd4cb03, type: 3}
    m_GameObject: {fileID: 0}
    m_MinAnimationSpeed: 1
    m_MaxAnimationSpeed: 1
    m_PerlinScale: 0.5
    m_Output: 0
    m_ColliderType: 1
    m_RandomTransform: 0
    m_Neighbors: 02000000020000000100000002000000
    m_NeighborPositions:
    - {x: 0, y: 1, z: 0}
    - {x: -1, y: 0, z: 0}
    - {x: 1, y: 0, z: 0}
    - {x: 0, y: -1, z: 0}
    m_RuleTransform: 0
  - m_Id: 22
    m_Sprites:
    - {fileID: 4204894156661526846, guid: 8956ef01e7585c24d95d1685ffd4cb03, type: 3}
    m_GameObject: {fileID: 0}
    m_MinAnimationSpeed: 1
    m_MaxAnimationSpeed: 1
    m_PerlinScale: 0.5
    m_Output: 0
    m_ColliderType: 1
    m_RandomTransform: 0
    m_Neighbors: 02000000010000000100000002000000
    m_NeighborPositions:
    - {x: 0, y: 1, z: 0}
    - {x: -1, y: 0, z: 0}
    - {x: 1, y: 0, z: 0}
    - {x: 0, y: -1, z: 0}
    m_RuleTransform: 0
  - m_Id: 23
    m_Sprites:
    - {fileID: 4555950206455999396, guid: 8956ef01e7585c24d95d1685ffd4cb03, type: 3}
    m_GameObject: {fileID: 0}
    m_MinAnimationSpeed: 1
    m_MaxAnimationSpeed: 1
    m_PerlinScale: 0.5
    m_Output: 0
    m_ColliderType: 1
    m_RandomTransform: 0
    m_Neighbors: 02000000010000000200000002000000
    m_NeighborPositions:
    - {x: 0, y: 1, z: 0}
    - {x: -1, y: 0, z: 0}
    - {x: 1, y: 0, z: 0}
    - {x: 0, y: -1, z: 0}
    m_RuleTransform: 0
  - m_Id: 24
    m_Sprites:
    - {fileID: -950347571703736490, guid: 8956ef01e7585c24d95d1685ffd4cb03, type: 3}
    m_GameObject: {fileID: 0}
    m_MinAnimationSpeed: 1
    m_MaxAnimationSpeed: 1
    m_PerlinScale: 0.5
    m_Output: 0
    m_ColliderType: 1
    m_RandomTransform: 0
    m_Neighbors: 02000000020000000200000002000000
    m_NeighborPositions:
    - {x: 0, y: 1, z: 0}
    - {x: -1, y: 0, z: 0}
    - {x: 1, y: 0, z: 0}
    - {x: 0, y: -1, z: 0}
    m_RuleTransform: 0
  - m_Id: 25
    m_Sprites:
    - {fileID: 8431567879546307361, guid: 8956ef01e7585c24d95d1685ffd4cb03, type: 3}
    m_GameObject: {fileID: 0}
    m_MinAnimationSpeed: 1
    m_MaxAnimationSpeed: 1
    m_PerlinScale: 0.5
    m_Output: 0
    m_ColliderType: 1
    m_RandomTransform: 0
    m_Neighbors: 0100000001000000020000000100000001000000010000000200000002000000
    m_NeighborPositions:
    - {x: -1, y: 1, z: 0}
    - {x: 0, y: 1, z: 0}
    - {x: 1, y: 1, z: 0}
    - {x: -1, y: 0, z: 0}
    - {x: 1, y: 0, z: 0}
    - {x: 0, y: -1, z: 0}
    - {x: 1, y: -1, z: 0}
    - {x: -1, y: -1, z: 0}
    m_RuleTransform: 0
  - m_Id: 26
    m_Sprites:
    - {fileID: 6504404949764257544, guid: 8956ef01e7585c24d95d1685ffd4cb03, type: 3}
    m_GameObject: {fileID: 0}
    m_MinAnimationSpeed: 1
    m_MaxAnimationSpeed: 1
    m_PerlinScale: 0.5
    m_Output: 0
    m_ColliderType: 1
    m_RandomTransform: 0
    m_Neighbors: 0200000001000000020000000100000001000000020000000100000001000000
    m_NeighborPositions:
    - {x: -1, y: 1, z: 0}
    - {x: 0, y: 1, z: 0}
    - {x: 1, y: 1, z: 0}
    - {x: -1, y: 0, z: 0}
    - {x: 1, y: 0, z: 0}
    - {x: -1, y: -1, z: 0}
    - {x: 0, y: -1, z: 0}
    - {x: 1, y: -1, z: 0}
    m_RuleTransform: 0
  - m_Id: 27
    m_Sprites:
    - {fileID: -161730942310045872, guid: 8956ef01e7585c24d95d1685ffd4cb03, type: 3}
    m_GameObject: {fileID: 0}
    m_MinAnimationSpeed: 1
    m_MaxAnimationSpeed: 1
    m_PerlinScale: 0.5
    m_Output: 0
    m_ColliderType: 1
    m_RandomTransform: 0
    m_Neighbors: 0100000001000000010000000100000001000000020000000100000002000000
    m_NeighborPositions:
    - {x: -1, y: 1, z: 0}
    - {x: 0, y: 1, z: 0}
    - {x: 1, y: 1, z: 0}
    - {x: -1, y: 0, z: 0}
    - {x: 1, y: 0, z: 0}
    - {x: -1, y: -1, z: 0}
    - {x: 0, y: -1, z: 0}
    - {x: 1, y: -1, z: 0}
    m_RuleTransform: 0
  - m_Id: 28
    m_Sprites:
    - {fileID: 7224432601011295448, guid: 8956ef01e7585c24d95d1685ffd4cb03, type: 3}
    m_GameObject: {fileID: 0}
    m_MinAnimationSpeed: 1
    m_MaxAnimationSpeed: 1
    m_PerlinScale: 0.5
    m_Output: 0
    m_ColliderType: 1
    m_RandomTransform: 0
    m_Neighbors: 010000000100000002000000010000000100000002000000
    m_NeighborPositions:
    - {x: 0, y: 1, z: 0}
    - {x: 1, y: 1, z: 0}
    - {x: -1, y: 0, z: 0}
    - {x: 1, y: 0, z: 0}
    - {x: 0, y: -1, z: 0}
    - {x: 1, y: -1, z: 0}
    m_RuleTransform: 0
  - m_Id: 29
    m_Sprites:
    - {fileID: 6158099478583925652, guid: 8956ef01e7585c24d95d1685ffd4cb03, type: 3}
    m_GameObject: {fileID: 0}
    m_MinAnimationSpeed: 1
    m_MaxAnimationSpeed: 1
    m_PerlinScale: 0.5
    m_Output: 0
    m_ColliderType: 1
    m_RandomTransform: 0
    m_Neighbors: 010000000100000001000000020000000200000001000000
    m_NeighborPositions:
    - {x: -1, y: 1, z: 0}
    - {x: 0, y: 1, z: 0}
    - {x: -1, y: 0, z: 0}
    - {x: 1, y: 0, z: 0}
    - {x: -1, y: -1, z: 0}
    - {x: 0, y: -1, z: 0}
    m_RuleTransform: 0
  - m_Id: 30
    m_Sprites:
    - {fileID: -2321345339680720106, guid: 8956ef01e7585c24d95d1685ffd4cb03, type: 3}
    m_GameObject: {fileID: 0}
    m_MinAnimationSpeed: 1
    m_MaxAnimationSpeed: 1
    m_PerlinScale: 0.5
    m_Output: 0
    m_ColliderType: 1
    m_RandomTransform: 0
    m_Neighbors: 020000000100000001000000010000000200000001000000
    m_NeighborPositions:
    - {x: 0, y: 1, z: 0}
    - {x: -1, y: 0, z: 0}
    - {x: 1, y: 0, z: 0}
    - {x: 0, y: -1, z: 0}
    - {x: 1, y: -1, z: 0}
    - {x: -1, y: -1, z: 0}
    m_RuleTransform: 0
  - m_Id: 31
    m_Sprites:
    - {fileID: 5722788873436263843, guid: 8956ef01e7585c24d95d1685ffd4cb03, type: 3}
    m_GameObject: {fileID: 0}
    m_MinAnimationSpeed: 1
    m_MaxAnimationSpeed: 1
    m_PerlinScale: 0.5
    m_Output: 0
    m_ColliderType: 1
    m_RandomTransform: 0
    m_Neighbors: 020000000100000001000000020000000100000001000000
    m_NeighborPositions:
    - {x: 0, y: 1, z: 0}
    - {x: -1, y: 0, z: 0}
    - {x: 1, y: 0, z: 0}
    - {x: -1, y: -1, z: 0}
    - {x: 0, y: -1, z: 0}
    - {x: 1, y: -1, z: 0}
    m_RuleTransform: 0
  - m_Id: 32
    m_Sprites:
    - {fileID: 465268135733930848, guid: 8956ef01e7585c24d95d1685ffd4cb03, type: 3}
    m_GameObject: {fileID: 0}
    m_MinAnimationSpeed: 1
    m_MaxAnimationSpeed: 1
    m_PerlinScale: 0.5
    m_Output: 0
    m_ColliderType: 1
    m_RandomTransform: 0
    m_Neighbors: 0200000002000000010000000100000002000000
    m_NeighborPositions:
    - {x: 0, y: 1, z: 0}
    - {x: -1, y: 0, z: 0}
    - {x: 1, y: 0, z: 0}
    - {x: 0, y: -1, z: 0}
    - {x: 1, y: -1, z: 0}
    m_RuleTransform: 0
  - m_Id: 33
    m_Sprites:
    - {fileID: 8212218462255770702, guid: 8956ef01e7585c24d95d1685ffd4cb03, type: 3}
    m_GameObject: {fileID: 0}
    m_MinAnimationSpeed: 1
    m_MaxAnimationSpeed: 1
    m_PerlinScale: 0.5
    m_Output: 0
    m_ColliderType: 1
    m_RandomTransform: 0
    m_Neighbors: 020000000100000001000000020000000100000002000000
    m_NeighborPositions:
    - {x: 0, y: 1, z: 0}
    - {x: -1, y: 0, z: 0}
    - {x: 1, y: 0, z: 0}
    - {x: -1, y: -1, z: 0}
    - {x: 0, y: -1, z: 0}
    - {x: 1, y: -1, z: 0}
    m_RuleTransform: 0
  - m_Id: 34
    m_Sprites:
    - {fileID: -8652554658855088352, guid: 8956ef01e7585c24d95d1685ffd4cb03, type: 3}
    m_GameObject: {fileID: 0}
    m_MinAnimationSpeed: 1
    m_MaxAnimationSpeed: 1
    m_PerlinScale: 0.5
    m_Output: 0
    m_ColliderType: 1
    m_RandomTransform: 0
    m_Neighbors: 0200000001000000020000000200000001000000
    m_NeighborPositions:
    - {x: 0, y: 1, z: 0}
    - {x: -1, y: 0, z: 0}
    - {x: 1, y: 0, z: 0}
    - {x: -1, y: -1, z: 0}
    - {x: 0, y: -1, z: 0}
    m_RuleTransform: 0
  - m_Id: 35
    m_Sprites:
    - {fileID: 2606140320989650486, guid: 8956ef01e7585c24d95d1685ffd4cb03, type: 3}
    m_GameObject: {fileID: 0}
    m_MinAnimationSpeed: 1
    m_MaxAnimationSpeed: 1
    m_PerlinScale: 0.5
    m_Output: 0
    m_ColliderType: 1
    m_RandomTransform: 0
    m_Neighbors: 010000000200000002000000010000000100000001000000
    m_NeighborPositions:
    - {x: 0, y: 1, z: 0}
    - {x: 1, y: 1, z: 0}
    - {x: -1, y: 0, z: 0}
    - {x: 1, y: 0, z: 0}
    - {x: 0, y: -1, z: 0}
    - {x: 1, y: -1, z: 0}
    m_RuleTransform: 0
  - m_Id: 36
    m_Sprites:
    - {fileID: -4172593896544474183, guid: 8956ef01e7585c24d95d1685ffd4cb03, type: 3}
    m_GameObject: {fileID: 0}
    m_MinAnimationSpeed: 1
    m_MaxAnimationSpeed: 1
    m_PerlinScale: 0.5
    m_Output: 0
    m_ColliderType: 1
    m_RandomTransform: 0
    m_Neighbors: 020000000100000001000000020000000100000001000000
    m_NeighborPositions:
    - {x: -1, y: 1, z: 0}
    - {x: 0, y: 1, z: 0}
    - {x: -1, y: 0, z: 0}
    - {x: 1, y: 0, z: 0}
    - {x: -1, y: -1, z: 0}
    - {x: 0, y: -1, z: 0}
    m_RuleTransform: 0
  - m_Id: 37
    m_Sprites:
    - {fileID: 5520581210931165803, guid: 8956ef01e7585c24d95d1685ffd4cb03, type: 3}
    m_GameObject: {fileID: 0}
    m_MinAnimationSpeed: 1
    m_MaxAnimationSpeed: 1
    m_PerlinScale: 0.5
    m_Output: 0
    m_ColliderType: 1
    m_RandomTransform: 0
    m_Neighbors: 010000000100000002000000010000000100000002000000
    m_NeighborPositions:
    - {x: -1, y: 1, z: 0}
    - {x: 0, y: 1, z: 0}
    - {x: 1, y: 1, z: 0}
    - {x: -1, y: 0, z: 0}
    - {x: 1, y: 0, z: 0}
    - {x: 0, y: -1, z: 0}
    m_RuleTransform: 0
  - m_Id: 38
    m_Sprites:
    - {fileID: 3770085557434832607, guid: 8956ef01e7585c24d95d1685ffd4cb03, type: 3}
    m_GameObject: {fileID: 0}
    m_MinAnimationSpeed: 1
    m_MaxAnimationSpeed: 1
    m_PerlinScale: 0.5
    m_Output: 0
    m_ColliderType: 1
    m_RandomTransform: 0
    m_Neighbors: 020000000100000001000000010000000100000002000000
    m_NeighborPositions:
    - {x: -1, y: 1, z: 0}
    - {x: 0, y: 1, z: 0}
    - {x: 1, y: 1, z: 0}
    - {x: -1, y: 0, z: 0}
    - {x: 1, y: 0, z: 0}
    - {x: 0, y: -1, z: 0}
    m_RuleTransform: 0
  - m_Id: 39
    m_Sprites:
    - {fileID: -8645517749259537703, guid: 8956ef01e7585c24d95d1685ffd4cb03, type: 3}
    m_GameObject: {fileID: 0}
    m_MinAnimationSpeed: 1
    m_MaxAnimationSpeed: 1
    m_PerlinScale: 0.5
    m_Output: 0
    m_ColliderType: 1
    m_RandomTransform: 0
    m_Neighbors: 010000000200000002000000010000000100000002000000
    m_NeighborPositions:
    - {x: 0, y: 1, z: 0}
    - {x: 1, y: 1, z: 0}
    - {x: -1, y: 0, z: 0}
    - {x: 1, y: 0, z: 0}
    - {x: 0, y: -1, z: 0}
    - {x: 1, y: -1, z: 0}
    m_RuleTransform: 0
  - m_Id: 40
    m_Sprites:
    - {fileID: 3444304603091142647, guid: 8956ef01e7585c24d95d1685ffd4cb03, type: 3}
    m_GameObject: {fileID: 0}
    m_MinAnimationSpeed: 1
    m_MaxAnimationSpeed: 1
    m_PerlinScale: 0.5
    m_Output: 0
    m_ColliderType: 1
    m_RandomTransform: 0
    m_Neighbors: 0200000001000000020000000100000001000000020000000100000002000000
    m_NeighborPositions:
    - {x: -1, y: 1, z: 0}
    - {x: 0, y: 1, z: 0}
    - {x: 1, y: 1, z: 0}
    - {x: -1, y: 0, z: 0}
    - {x: 1, y: 0, z: 0}
    - {x: -1, y: -1, z: 0}
    - {x: 0, y: -1, z: 0}
    - {x: 1, y: -1, z: 0}
    m_RuleTransform: 0
  - m_Id: 41
    m_Sprites:
    - {fileID: 9220904022151616551, guid: 8956ef01e7585c24d95d1685ffd4cb03, type: 3}
    m_GameObject: {fileID: 0}
    m_MinAnimationSpeed: 1
    m_MaxAnimationSpeed: 1
    m_PerlinScale: 0.5
    m_Output: 0
    m_ColliderType: 1
    m_RandomTransform: 0
    m_Neighbors: 020000000100000001000000020000000200000001000000
    m_NeighborPositions:
    - {x: -1, y: 1, z: 0}
    - {x: 0, y: 1, z: 0}
    - {x: -1, y: 0, z: 0}
    - {x: 1, y: 0, z: 0}
    - {x: -1, y: -1, z: 0}
    - {x: 0, y: -1, z: 0}
    m_RuleTransform: 0
  - m_Id: 42
    m_Sprites:
    - {fileID: -49391836679407401, guid: 8956ef01e7585c24d95d1685ffd4cb03, type: 3}
    m_GameObject: {fileID: 0}
    m_MinAnimationSpeed: 1
    m_MaxAnimationSpeed: 1
    m_PerlinScale: 0.5
    m_Output: 0
    m_ColliderType: 1
    m_RandomTransform: 0
    m_Neighbors: 0200000002000000020000000200000002000000020000000200000002000000
    m_NeighborPositions:
    - {x: -1, y: 1, z: 0}
    - {x: 0, y: 1, z: 0}
    - {x: 1, y: 1, z: 0}
    - {x: -1, y: 0, z: 0}
    - {x: 1, y: 0, z: 0}
    - {x: -1, y: -1, z: 0}
    - {x: 0, y: -1, z: 0}
    - {x: 1, y: -1, z: 0}
    m_RuleTransform: 0
  - m_Id: 43
    m_Sprites:
    - {fileID: 487210954221926417, guid: 8956ef01e7585c24d95d1685ffd4cb03, type: 3}
    m_GameObject: {fileID: 0}
    m_MinAnimationSpeed: 1
    m_MaxAnimationSpeed: 1
    m_PerlinScale: 0.5
    m_Output: 0
    m_ColliderType: 1
    m_RandomTransform: 0
    m_Neighbors: 0200000002000000020000000200000002000000020000000200000002000000
    m_NeighborPositions:
    - {x: -1, y: 1, z: 0}
    - {x: 0, y: 1, z: 0}
    - {x: 1, y: 1, z: 0}
    - {x: -1, y: 0, z: 0}
    - {x: 1, y: 0, z: 0}
    - {x: -1, y: -1, z: 0}
    - {x: 0, y: -1, z: 0}
    - {x: 1, y: -1, z: 0}
    m_RuleTransform: 0
  - m_Id: 44
    m_Sprites:
    - {fileID: 5717256300566108257, guid: 8956ef01e7585c24d95d1685ffd4cb03, type: 3}
    m_GameObject: {fileID: 0}
    m_MinAnimationSpeed: 1
    m_MaxAnimationSpeed: 1
    m_PerlinScale: 0.5
    m_Output: 0
    m_ColliderType: 1
    m_RandomTransform: 0
    m_Neighbors: 0100000001000000020000000100000001000000020000000100000001000000
    m_NeighborPositions:
    - {x: -1, y: 1, z: 0}
    - {x: 0, y: 1, z: 0}
    - {x: 1, y: 1, z: 0}
    - {x: -1, y: 0, z: 0}
    - {x: 1, y: 0, z: 0}
    - {x: -1, y: -1, z: 0}
    - {x: 0, y: -1, z: 0}
    - {x: 1, y: -1, z: 0}
    m_RuleTransform: 0
  - m_Id: 45
    m_Sprites:
    - {fileID: -3874728729632614404, guid: 8956ef01e7585c24d95d1685ffd4cb03, type: 3}
    m_GameObject: {fileID: 0}
    m_MinAnimationSpeed: 1
    m_MaxAnimationSpeed: 1
    m_PerlinScale: 0.5
    m_Output: 0
    m_ColliderType: 1
    m_RandomTransform: 0
    m_Neighbors: 0200000001000000010000000100000001000000010000000100000002000000
    m_NeighborPositions:
    - {x: -1, y: 1, z: 0}
    - {x: 0, y: 1, z: 0}
    - {x: 1, y: 1, z: 0}
    - {x: -1, y: 0, z: 0}
    - {x: 1, y: 0, z: 0}
    - {x: -1, y: -1, z: 0}
    - {x: 0, y: -1, z: 0}
    - {x: 1, y: -1, z: 0}
    m_RuleTransform: 0
  - m_Id: 46
    m_Sprites:
    - {fileID: -2096403621616735080, guid: 8956ef01e7585c24d95d1685ffd4cb03, type: 3}
    m_GameObject: {fileID: 0}
    m_MinAnimationSpeed: 1
    m_MaxAnimationSpeed: 1
    m_PerlinScale: 0.5
    m_Output: 0
    m_ColliderType: 1
    m_RandomTransform: 0
    m_Neighbors: 02000000010000000200000001000000
    m_NeighborPositions:
    - {x: -1, y: 0, z: 0}
    - {x: 1, y: 0, z: 0}
    - {x: 0, y: -1, z: 0}
    - {x: 0, y: 1, z: 0}
    m_RuleTransform: 0
  - m_Id: 47
    m_Sprites:
    - {fileID: -6085219879064506178, guid: 8956ef01e7585c24d95d1685ffd4cb03, type: 3}
    m_GameObject: {fileID: 0}
    m_MinAnimationSpeed: 1
    m_MaxAnimationSpeed: 1
    m_PerlinScale: 0.5
    m_Output: 0
    m_ColliderType: 1
    m_RandomTransform: 0
    m_Neighbors: 020000000100000002000000010000000100000002000000
    m_NeighborPositions:
    - {x: -1, y: 1, z: 0}
    - {x: 0, y: 1, z: 0}
    - {x: 1, y: 1, z: 0}
    - {x: -1, y: 0, z: 0}
    - {x: 1, y: 0, z: 0}
    - {x: 0, y: -1, z: 0}
    m_RuleTransform: 0
  - m_Id: 48
    m_Sprites:
    - {fileID: -8931290312405126167, guid: 8956ef01e7585c24d95d1685ffd4cb03, type: 3}
    m_GameObject: {fileID: 0}
    m_MinAnimationSpeed: 1
    m_MaxAnimationSpeed: 1
    m_PerlinScale: 0.5
    m_Output: 0
    m_ColliderType: 1
    m_RandomTransform: 0
    m_Neighbors: 0200000001000000010000000200000002000000
    m_NeighborPositions:
    - {x: -1, y: 1, z: 0}
    - {x: 0, y: 1, z: 0}
    - {x: -1, y: 0, z: 0}
    - {x: 1, y: 0, z: 0}
    - {x: 0, y: -1, z: 0}
    m_RuleTransform: 0
